var x1>=0, integer;
var x2>=0, integer;
var x3>=0, integer;
var x4>=0, integer;
var x5>=0, integer;
var x6>=0, integer;
var x7>=0, integer;

minimize personale: x1+x2+x3+x4+x5+x6+x7;
s.t. presenze_lun: x1+x4+x5+x6+x7>=11;
s.t. presenze_mar: x1+x2+x5+x6+x7>=9;
s.t. presenze_mer: x1+x2+x3+x6+x7>=7;
s.t. presenze_giov: x1+x2+x3+x4+x7>=12;
s.t. presenze_ven:x1+x2+x3+x4+x5>=13;
s.t. presenze_sab: x2+x3+x4+x5+x6>=8;
s.t. presenze_dom: x3+x4x+x5+x6+x7>=5;
